{
    "fluentMethods": true,
    "relationships": [
        {
            "relationshipType": "many-to-one",
            "relationshipName": "user",
            "otherEntityName": "user",
            "otherEntityField": "id"
        }
    ],
    "fields": [
        {
            "fieldName": "actualClass",
            "javadoc": "actualClass needed only for Mexico destinations​",
            "fieldType": "Integer"
        },
        {
            "fieldName": "dimL",
            "fieldType": "Integer"
        },
        {
            "fieldName": "dimW",
            "fieldType": "Integer"
        },
        {
            "fieldName": "dimH",
            "fieldType": "Integer"
        },
        {
            "fieldName": "dimUnit",
            "fieldType": "String"
        },
        {
            "fieldName": "nmfc",
            "fieldType": "Integer"
        },
        {
            "fieldName": "nmfcSub",
            "fieldType": "Integer"
        },
        {
            "fieldName": "numberOfUnits",
            "fieldType": "Integer"
        },
        {
            "fieldName": "ratedClass",
            "fieldType": "Integer"
        },
        {
            "fieldName": "weight",
            "fieldType": "Integer",
            "fieldValidateRules": [
                "required"
            ]
        }
    ],
    "changelogDate": "20170719151326",
    "entityTableName": "freight_unit",
    "dto": "no",
    "pagination": "no",
    "service": "serviceImpl"
}